%YAML 1.1
%TAG !u! tag:unity3d.com,2011:
--- !u!114 &11400000
MonoBehaviour:
  m_ObjectHideFlags: 0
  m_PrefabParentObject: {fileID: 0}
  m_PrefabInternal: {fileID: 0}
  m_GameObject: {fileID: 0}
  m_Enabled: 1
  m_EditorHideFlags: 0
  m_Script: {fileID: 11500000, guid: fdfd5bf1b0a12a5408555a9c51421ba4, type: 3}
  m_Name: engineEditRuleTile
  m_EditorClassIdentifier: 
  m_DefaultSprite: {fileID: 21300000, guid: c0ebac37a5c48784dbddbc136ae4ca43, type: 3}
  m_DefaultColliderType: 1
  RuleNames:
  - Click to set rule name
  - 
  - 
  - 
  - 
  - 
  - 
  - 
  - 
  - 
  - 
  - 
  - 
  firstExists: 0
  These: 1
  DefaultNumOfThese: 1
  TheseNumberOfTiles: 01000000000000
  NotZero: 5
  firstExists2: 1
  NotThese: 0
  DefaultNumOfNotThese: 0
  NotTheseNumberOfTiles: 000000000000
  t1:
  - {fileID: 11400000}
  t2: []
  t3: []
  t4: []
  t5: []
  t6: []
  t7: []
  n1: []
  n2: []
  n3: []
  n4: []
  n5: []
  n6: []
  m_TilingRules:
  - m_Neighbors: 0000000003000000000000000000000000000000000000000000000000000000
    m_Sprites:
    - {fileID: 21300000, guid: c0ebac37a5c48784dbddbc136ae4ca43, type: 3}
    m_AnimationSpeed: 1
    m_PerlinScale: 0.5
    m_RuleTransform: 1
    m_Output: 0
    m_ColliderType: 1
    m_RandomTransform: 0
  IsSetToPreference: 0
  validRules: []
